{
  "name": "@itential/iap",
  "description": "Latest Itential Automation Platform Packages",
  "version": "0",
  "environment": {
    "os": {
      "version": "3.10.0-514.26.2.el7.x86_64"
    },
    "node": {
      "version": "8"
    }
  },
  "external": [
    {
      "name": "mongo",
      "type": "mongo",
      "version": "3.6"
    },
    {
      "name": "redis",
      "type": "redis"
    },
    {
      "name": "rabbitmq",
      "type": "rabbitmq"
    }
  ],
  "packages": {
    "@itential/pronghorn-core": "10.18.6",
    "@itential/adapter-local_aaa": "3.0.5",
    "@itential/adapter-redis": "2.0.9",
    "@itential/app-form_builder": "4.2.19",
    "@itential/app-task_worker": "3.1.2",
    "@itential/app-workflow_builder": "5.8.0",
    "@itential/app-workflow_engine": "7.9.0",
    "@itential/tags": "2.2.6",
    "@itential/search": "1.1.4"
  }
}