{
  "name": "documentation",
  "description": "documentation packages and versions for release 2019.1.99",
  "version": "2019.1.99",
  "environment": {
    "os": {
      "version": "3.10.0-327.el7.x86_64"
    },
    "node": {
      "version": "8.13.0"
    }
  },
  "external": [
    {
      "name": "Local NSO",
      "type": "nso"
    },
    {
      "name": "mongo",
      "type": "mongo"
    },
    {
      "name": "redis",
      "type": "redis"
    }
  ],
  "packages": {
    "@itential/pronghorn-core": "7.1.13-2019.1.10",
    "@itential/adapter-ansible_manager": "2.2.8-2019.1.0",
    "@itential/adapter-email": "3.1.1-2019.1.0",
    "@itential/adapter-ldap": "2.11.4-2019.1.0",
    "@itential/adapter-local_aaa": "3.0.0-2019.1.0",
    "@itential/adapter-mongo": "2.8.8-2019.1.0",
    "@itential/adapter-redis": "2.0.5-2019.1.0",
    "@itential/app-array": "1.2.1-2019.1.1",
    "@itential/app-configuration_manager": "3.16.9-2019.1.22",
    "@itential/app-form_builder": "3.15.10-2019.1.5",
    "@itential/app-json": "1.0.3-2019.1.1",
    "@itential/app-mop": "5.12.2-2019.1.2",
    "@itential/app-number": "1.0.4-2019.1.1",
    "@itential/app-object": "1.1.1-2019.1.1",
    "@itential/app-string": "1.0.6-2019.1.2",
    "@itential/app-task_worker": "3.0.1-2019.1.1",
    "@itential/app-template_builder": "1.4.1-2019.1.3",
    "@itential/app-workflow_builder": "4.4.9-2019.1.4",
    "@itential/app-workflow_engine": "5.1.10-2019.1.2",
    "@itential/adapter-nso": "6.5.10-2019.1.6",
    "@itential/adapter-prospector": "1.6.8-2019.1.0",
    "@itential/app-golden_config": "5.13.11-2019.1.3",
    "@itential/app-nso_manager": "2.12.4-2019.1.3",
    "@itential/app-smart_template": "1.3.5-2019.1.1",
    "@itential/app-golden_services": "1.1.7-2019.1.1",
    "@itential/app-service_catalog": "3.8.0-2019.1.1",
    "@itential/app-service_management": "2.18.2-2019.1.1",
    "@itential/adapter-sql": "1.10.5-2019.1.0",
    "@itential/adapter-topology": "1.2.3",
    "@itential/app-firewall": "4.13.17",
    "@itential/app-firewall_intake": "1.13.6",
    "@itential/app-network_visualization": "1.2.8",
    "@itential/app-peering_insights": "1.1.6",
    "@itential/app-policy_manager": "2.6.4",
    "@itential/app-device_management": "5.0.4-2019.1.2"
  }
}