{
  "name": "documentation",
  "description": "documentation packages and versions for release 2018.3.9",
  "version": "2018.3.9",
  "environment": {
    "os": {
      "version": "3.10.0-327.el7.x86_64"
    },
    "node": {
      "version": "8.13.0"
    }
  },
  "external": [
    {
      "name": "Local NSO",
      "type": "nso"
    },
    {
      "name": "mongo",
      "type": "mongo"
    },
    {
      "name": "redis",
      "type": "redis"
    }
  ],
  "packages": {
    "@itential/pronghorn-core": "6.56.2-2018.3.33",
    "@itential/adapter-ansible_manager": "1.1.5-2018.3.3",
    "@itential/adapter-email": "3.0.11-2018.3.1",
    "@itential/adapter-ldap": "2.11.2-2018.3.2",
    "@itential/adapter-local_aaa": "2.4.8-2018.3.1",
    "@itential/adapter-mongo": "2.8.6-2018.3.1",
    "@itential/adapter-redis": "2.0.4-2018.3.1",
    "@itential/app-array": "1.0.1-2018.3.1",
    "@itential/app-configuration_manager": "1.1.3-2018.3.5",
    "@itential/app-form_builder": "3.10.3-2018.3.9",
    "@itential/app-json": "1.0.1-2018.3.1",
    "@itential/app-mop": "5.5.1-2018.3.5",
    "@itential/app-number": "1.0.2-2018.3.1",
    "@itential/app-object": "1.0.2-2018.3.1",
    "@itential/app-string": "1.0.3-2018.3.2",
    "@itential/app-task_worker": "2.3.4-2018.3.4",
    "@itential/app-template_builder": "1.0.0-2018.3.3",
    "@itential/app-workflow_builder": "3.21.3-2018.3.9",
    "@itential/app-workflow_engine": "4.17.14-2018.3.10",
    "@itential/adapter-nso": "6.0.2-2018.3.20",
    "@itential/adapter-prospector": "1.6.7-2018.3.1",
    "@itential/app-golden_config": "5.7.0-2018.3.10",
    "@itential/app-nso_manager": "2.11.0-2018.3.5",
    "@itential/app-smart_template": "1.0.1-2018.3.8",
    "@itential/app-golden_services": "1.1.0-2018.3.5",
    "@itential/app-service_catalog": "3.6.1-2018.3.5",
    "@itential/app-service_management": "2.17.2-2018.3.4",
    "@itential/adapter-sql": "1.10.4-2018.3.0",
    "@itential/adapter-topology": "1.2.3",
    "@itential/app-firewall": "4.13.14",
    "@itential/app-firewall_intake": "1.13.6",
    "@itential/app-network_visualization": "1.2.8",
    "@itential/app-peering_insights": "1.1.6",
    "@itential/app-policy_manager": "2.6.4",
    "@itential/app-device_management": "5.0.1-2018.3.3"
  }
}